20
10
..........
..........
.##.......
.##.......
..........
..........
......##..
......##..
..........
..........
4
###.
.###
.###
....
20
.###################
####################
####################
####################
####################
####################
####################
####################
####################
####################
####################
####################
####################
####################
####################
####################
####################
####################
####################
####################
20
....................
....................
....................
....................
....................
....................
....................
....................
....................
....................
....................
....................
....................
....................
....................
....................
....................
....................
.......##...........
.......##...........
20
....................
....................
....................
....................
....................
....................
....................
....................
....................
....................
....................
...........#########
...........#########
...........#########
...........#########
...........#########
...........#########
...........#########
...........#########
...........#########
20
####################
####################
####################
####################
####################
####################
####################
####################
####################
####################
####################
####################
####################
####################
####################
####################
####################
####################
####################
####################
20
....................
....................
....................
....................
....................
....................
....................
....................
....................
....................
....................
....................
....................
..........######....
..........######....
..........######....
..........######....
..........######....
..........######....
....................
10
..........
.######...
.#####.#..
.######...
.######...
.######...
.######...
..........
..........
..........
5
#####
#####
#####
#####
.....
10
..........
..........
####......
####......
####......
####......
..........
..........
..........
.........#
20
....................
....................
....................
....................
....................
....................
###.................
###.................
###.................
....................
....................
....................
....................
....................
....................
....................
....................
....................
....................
...............#....
20
....................
....................
....................
....................
....................
....................
....................
....................
....................
....................
....................
.......#####........
.......#####........
.......#####........
.......#####........
....................
....................
....................
....................
....................
5
#####
#####
#####
#####
#####
4
..##
..##
....
....
10
..........
..........
..........
..........
..........
..........
..........
..........
..........
.........#
10
..........
..........
..........
...##.....
...##.....
...##.....
..........
..........
..........
..........
10
..........
..........
..........
.....#....
..........
..#.......
..........
..........
..........
..........
20
....................
....................
....................
....................
########..#######...
########..########..
##........##....##..
##........##....##..
########..#######...
########..########..
##........##....##..
##........##....##..
##........########..
##........#######...
....................
....................
....................
....................
....................
....................
10
..........
..........
.......###
.......###
.......###
..........
..........
..........
..........
..........
20
..############......
..############......
..############......
..############......
..############......
..############......
..############......
..############......
..############......
..############......
..############......
....................
....................
....................
....................
....................
....................
....................
....................
....................
